<svg width="29" height="29" viewBox="0 0 29 29" fill="none" xmlns="http://www.w3.org/2000/svg">
<rect width="29" height="29" rx="14.5" fill="#FDA655"/>
<path d="M20.8067 11.6933C20.58 11.92 20.36 12.14 20.3533 12.36C20.3333 12.5733 20.56 12.7933 20.7733 13C21.0933 13.3333 21.4067 13.6333 21.3933 13.96C21.38 14.2866 21.04 14.6266 20.7 14.96L17.9467 17.72L17 16.7733L19.8333 13.9466L19.1933 13.3066L18.2467 14.2466L15.7467 11.7466L18.3067 9.19329C18.5667 8.93329 19 8.93329 19.2467 9.19329L20.8067 10.7533C21.0667 11 21.0667 11.4333 20.8067 11.6933ZM9 18.5L15.3733 12.12L17.8733 14.62L11.5 21H9V18.5Z" fill="white"/>
</svg>
